名前,電話番号,e-mail,といあわせ内容,送信時間
a,a,a,a,2018/04/26 11:18:36
名前,電話番号,e-mail,といあわせ内容,送信時間
がははら,00922,fff@gmail.cocm,gaggataahayhapjarahpawwa,2018/04/26 11:24:34
名前,電話番号,e-mail,といあわせ内容,送信時間
あああ,i,もー,あああああああああああああああああああああああああああああああああ,2018/04/26 11:34:06
名前,電話番号,e-mail,といあわせ内容,送信時間
あああ,i,もー,あああああああああああああああああああああああああああああああああ,2018/04/26 11:34:38
名前,電話番号,e-mail,といあわせ内容,送信時間
あああ,i,もー,あああああああああああああああああああああああああああああああああ,2018/04/26 11:35:09
名前,電話番号,e-mail,といあわせ内容,送信時間
がっらｇｚ,900---６７５６,ｓｈｔｒみ：＠ｓｔ,ｓｓｓｓｓｓｓｓｔｔｔｔｔｔｔｔｔｔｔｔｔｔｙｙｙｙｙｙｙｙｙｙｙｙｙｙｙｙんｓ,2018/04/26 12:08:23
名前,電話番号,e-mail,といあわせ内容,送信時間
CSV,ファイルを,共有,したーい,2018/04/26 12:18:44
